…
            max = max(Score), 

            min = min(Score)

            ) %>%

  ungroup() %>%

  arrange(desc(Who), AverageScore) 

Lets look at the data again

fantasy

## # A tibble: 32 x 6
##                      Team   Who AverageScore    STDEV   max   min
##                     <chr> <chr>        <dbl>    <dbl> <dbl> <dbl>
##  1            Team Grymes   For        86.55 22.42564 139.7  65.5
##  2   Green Baye's Theorem   For        91.50 22.76923 128.8  64.0
##  3       Berry Berry Good   For        95.84 25.79161 137.0  64.2
##  4        Epsilon Ballers   For        96.02 17.90349 116.4  64.3
##  5     Calgary Stampeders   For        98.04 22.80508 133.3  68.9
##  6       a^2+b^2= c^hawks   For        99.69 11.15322 115.2  78.3
##  7   Team HotHanksHitters   For       102.64 20.46820 143.5  74.4
##  8      Las Vegas Radians   For       104.20 22.06083 141.2  66.1
##  9      2-2-2 Mega-H-Ertz   For       104.28 20.08625 138.2  73.2
## 10 'R'm Chair Quarterback   For       104.52 16.21336 130.1  83.8
## # ... with 22 more rows
…
  mutate(dummy = 0) %>%

# add a varible to help with the facet heirarchy when plotting

  mutate(ord = row_number())

# make the order permanent

fantasy$Team = factor(fantasy$Team, levels=unique(fantasy$Team[order(fantasy$ord)]), ordered=TRUE)

One last look at the data:

fantasy

## # A tibble: 32 x 8
##                      Team   Who AverageScore    STDEV   max   min dummy   ord
##                     <ord> <chr>        <dbl>    <dbl> <dbl> <dbl> <dbl> <int>
##  1            Team Grymes   For        86.55 22.42564 139.7  65.5     0     1
##  2   Green Baye's Theorem   For        91.50 22.76923 128.8  64.0     0     2
##  3       Berry Berry Good   For        95.84 25.79161 137.0  64.2     0     3
##  4        Epsilon Ballers   For        96.02 17.90349 116.4  64.3     0     4
##  5     Calgary Stampeders   For        98.04 22.80508 133.3  68.9     0     5
##  6       a^2+b^2= c^hawks   For        99.69 11.15322 115.2  78.3     0     6
##  7   Team HotHanksHitters   For       102.64 20.46820 143.5  74.4     0     7
##  8      Las Vegas Radians   For       104.20 22.06083 141.2  66.1     0     8
##  9      2-2-2 Mega-H-Ertz   For       104.28 20.08625 138.2  73.2     0     9
## 10 'R'm Chair Quarterback   For       104.52 16.21336 130.1  83.8     0    10
## # ... with 22 more rows
…
