The Peloton API Part 1: Accessing and Exploring
…
Explore API

Currently, the pelotonR package has a nice function for exploring your information. As with most APIs the data is stored in JSON format The function below extracts the data and unpacks some of the nested lists.

Here it is below:

my_workout_df <- pelotonR::get_all_workouts(userid = me$id, num_workouts = me$total_workouts, joins = "ride,ride.instructor")
my_workout_df 

## # A tibble: 213 x 79
##    created_at          device_type end_time            fitbit_id fitness_discipl~ has_pedaling_me~
##    <dttm>              <chr>       <dttm>              <chr>     <chr>            <lgl>           
##  1 2020-09-17 18:12:20 home_bike_~ 2020-09-17 18:43:19 <NA>      cycling          TRUE            
##  2 2020-09-17 18:05:42 home_bike_~ 2020-09-17 18:10:40 <NA>      cycling          TRUE            
##  3 2020-09-09 20:42:54 home_bike_~ 2020-09-09 21:13:53 <NA>      cycling          TRUE            
##  4 2020-09-09 20:35:40 home_bike_~ 2020-09-09 20:40:40 <NA>      cycling          TRUE            
##  5 2020-09-03 21:53:49 home_bike_~ 2020-09-03 21:58:45 <NA>      cycling          TRUE            
##  6 2020-09-03 21:17:34 home_bike_~ 2020-09-03 21:48:31 <NA>      cycling          TRUE            
##  7 2020-09-03 21:10:04 home_bike_~ 2020-09-03 21:15:04 <NA>      cycling          TRUE            
##  8 2020-09-01 22:01:18 home_bike_~ 2020-09-01 22:06:16 <NA>      stretching       FALSE           
##  9 2020-09-01 21:20:35 home_bike_~ 2020-09-01 21:51:33 <NA>      cycling          TRUE            
## 10 2020-09-01 21:13:31 home_bike_~ 2020-09-01 21:18:30 <NA>      cycling          TRUE            
## # ... with 203 more rows, and 73 more variables: has_leaderboard_metrics <lgl>, id <chr>,
## #   is_total_work_personal_record <lgl>, metrics_type <chr>, name <chr>, peloton_id <chr>,
## #   platform <chr>, start_time <dttm>, strava_id <chr>, status <chr>, timezone <chr>, title <chr>,
## #   total_work <dbl>, user_id <chr>, workout_type <chr>, total_video_watch_time_seconds <int>,
## #   total_video_buffering_seconds <int>, v2_total_video_watch_time_seconds <chr>,
## #   v2_total_video_buffering_seconds <chr>, ride <list>, created <dttm>,
## #   device_time_created_at <dttm>, effort_zones <chr>, ride_has_closed_captions <lgl>,
## #   ride_content_provider <chr>, ride_content_format <chr>, ride_description <chr>,
## #   ride_difficulty_rating_avg <dbl>, ride_difficulty_rating_count <int>,
…
Dig in deeper into the API

The Peloton API has a lot more information that you cannot yet access in the library. As I get more familiar with the API / library, I may do a few more pull requests. In the meantime, lets see what else we can find.

What we see in the my_workout dataframe above list element that contains the instructor ID.

my_workout_df %>%
  select(ride_instructor) %>% 
  group_by(ride_instructor) %>%
  group_split() %>% 
  purrr::map(~unnest(.x)) %>% 
  purrr::map(~slice(.x, 1)) %>% 
  purrr::map_dfr(~unnest(.x))

## # A tibble: 32 x 1
##    ride_instructor                 
##    <chr>                           
##  1 731d7b7f6b414a49892c21f01e25317d
##  2 4672db841da0495caf4b8f9cda405512
##  3 048f0ce00edb4427b2dced6cbeb107fd
##  4 561f95c405734d8488ed8dcc8980d599
##  5 7f3de5e78bb44d8591a0f77f760478c3
##  6 2e57092bee334c8c8dcb9fe16ba5308c
##  7 c0a9505d8135412d824cf3c97406179b
##  8 c406f36aa2a44a5baf8831f8b92f6920
##  9 4904612965164231a37143805a387e40
## 10 51702da3a4684b988d31d89eebb43175
## # ... with 22 more rows
…
Photo Credit: Peloton Website

Lets get a look at how we can access the data of all the Peloton instructors.

instructor_df <-
1:parse_list_to_df(parsed)$total %>%
  purrr::map_dfr(~ instructor_function(num = .x))
instructor_df

## # A tibble: 34 x 4
##    instructor_name    ride_instructor_id    ride_instructor_bio                   ride_instructor_b~
##    <chr>              <chr>                 <chr>                                 <list>            
##  1 Aditi Shah         b8c2734e18a7496fa146~ "To Aditi, yoga is a workout, a scie~ <list [2]>        
##  2 Adrian Williams    f962a2b1b34d424cabab~ "Adrian is a powerhouse instructor w~ <list [6]>        
##  3 Anna Greenberg     a8c56f162c964e939256~ "When Anna first turned to yoga, she~ <list [2]>        
##  4 Alex Toussaint     2e57092bee334c8c8dcb~ "Alex Toussaint has a love for fitne~ <list [1]>        
##  5 Ally Love          731d7b7f6b414a49892c~ "As a model, dancer, certified healt~ <list [1]>        
##  6 Andy Speer         c9fa21c2004c4544a7c3~ "Andy takes a technique-centered app~ <list [2]>        
##  7 Becs Gentry        286fc17080d34406a54b~ "Becs joins Peloton from London as a~ <list [2]>        
##  8 Ben Alldis         7f3de5e78bb44d8591a0~ "Growing up, Ben was an accomplished~ <list [1]>        
##  9 Chase Tucker       1423df9e4ad64a84a304~ "Growing up in a household of athlet~ <list [2]>        
## 10 Chelsea Jackson R~ 0021e2220a7940cf94a7~ "Chelsea has traveled a unique path ~ <list [2]>        
## # ... with 24 more rows
…
