3 Data Visualization | Intermediate R
…
            Intermediate R

3 Data Visualization

3.1 Bar Chart

slgname

## # A tibble: 1,564 x 9
##    player_id player             h doubles triples    hr    ab     g   slg
##    <chr>     <chr>          <dbl>   <dbl>   <dbl> <dbl> <dbl> <dbl> <dbl>
##  1 ruthba01  Babe Ruth       2873     506     136   714  8398  2503 0.690
##  2 willite01 Ted Williams    2654     525      71   521  7706  2292 0.634
##  3 gehrilo01 Lou Gehrig      2721     534     163   493  8001  2164 0.632
##  4 foxxji01  Jimmie Foxx     2646     458     125   534  8134  2317 0.609
##  5 bondsba01 Barry Bonds     2935     601      77   762  9847  2986 0.607
##  6 greenha01 Hank Greenberg  1628     379      71   331  5193  1394 0.605
##  7 mcgwima01 Mark McGwire    1626     252       6   583  6187  1874 0.588
##  8 ramirma02 Manny Ramirez   2574     547      20   555  8244  2302 0.585
##  9 dimagjo01 Joe DiMaggio    2214     389     131   361  6821  1736 0.579
## 10 hornsro01 Rogers Hornsby  2930     541     169   301  8173  2259 0.577
## # ... with 1,554 more rows
…
