Mathlete Fantasy Football Analysis
…
    this.content$leaguesettings$teams$`14`$scheduleItems$matchups,

    this.content$leaguesettings$teams$`15`$scheduleItems$matchups,

    this.content$leaguesettings$teams$`16`$scheduleItems$matchups

  )

)

Lets look at the data. It contains every game and result thoughtout the season. This includes games that have not been played yet so we’ll have to account for that later.

as.tibble(fantasystart)

## # A tibble: 256 x 5
##    Away                   Home                   awayscore homescore  week
##    <chr>                  <chr>                      <dbl>     <dbl> <int>
##  1 'R'm Chair Quarterback Epsilon Ballers            125.       64.3     1
##  2 5 Guns N' Rosas        'R'm Chair Quarterback     151.      109.      2
##  3 2-2-2 Mega-H-Ertz      'R'm Chair Quarterback     138.       99.5     3
##  4 'R'm Chair Quarterback Las Vegas Radians           85.6     105.      4
##  5 3 Baye's Theorem       'R'm Chair Quarterback      83.5     121.      5
##  6 'R'm Chair Quarterback Baby got Dak               101.       73.4     6
##  7 'R'm Chair Quarterback a^2+b^2= c^hawks           130.       78.3     7
##  8 'R'm Chair Quarterback Team LaPorte                83.8      89.6     8
##  9 Berry Berry Good       'R'm Chair Quarterback      98.0      93.4     9
## 10 'R'm Chair Quarterback The Big Gronkowski          97.2     124.     10
## # ... with 246 more rows
…
  group_by(week) %>%

  summarise(Plunger = min(Score))

fantasy = 

  fantasy %>%

  left_join(plung) %>%

  mutate(Plunger = ifelse(Plunger==Score,1,0))

as.tibble(fantasy)

## # A tibble: 1,024 x 5
##    Team                   Score Who    week Plunger
##    <chr>                  <dbl> <chr> <int>   <dbl>
##  1 'R'm Chair Quarterback 125.  For       1      0.
##  2 5 Guns N' Rosas        151.  For       2      0.
##  3 2-2-2 Mega-H-Ertz      138.  For       3      0.
##  4 'R'm Chair Quarterback  85.6 For       4      0.
##  5 3 Baye's Theorem        83.5 For       5      0.
##  6 'R'm Chair Quarterback 101.  For       6      0.
##  7 'R'm Chair Quarterback 130.  For       7      0.
##  8 'R'm Chair Quarterback  83.8 For       8      0.
##  9 Berry Berry Good        98.0 For       9      0.
## 10 'R'm Chair Quarterback  97.2 For      10      0.
## # ... with 1,014 more rows
…
Lets join the data with our previous dataset.

fantasy2 = fantasy %>%

  filter(Who == "For") %>%

  left_join(standing, by = "Team")

as.tibble(fantasy)

## # A tibble: 32 x 10
##    Team                 Who   AverageScore STDEV   max   min Plunger PlungerLuck dummy   ord
##    <ord>                <chr>        <dbl> <dbl> <dbl> <dbl> <chr>   <chr>       <dbl> <int>
##  1 Team Grymes          For           84.4  27.7  150.  43.1 5       ""             0.     1
##  2 Green Baye's Theorem For           91.8  21.4  129.  64.0 1       ""             0.     2
##  3 Epsilon Ballers      For           95.3  20.1  128.  56.0 1       ""             0.     3
##  4 Berry Berry Good     For           95.9  22.7  137.  64.2 4       ""             0.     4
##  5 Team HotHanksHitters For           99.0  20.5  143.  63.4 0       ""             0.     5
##  6 Team LaPorte         For          100.   22.7  136.  61.3 2       ""             0.     6
##  7 2-2-2 Mega-H-Ertz    For          102.   17.6  138.  73.2 0       ""             0.     7
##  8 Baby got Dak         For          103.   25.1  148.  60.8 1       ""             0.     8
##  9 a^2+b^2= c^hawks     For          105.   15.9  144.  78.3 0       ""             0.     9
## 10 Las Vegas Radians    For          105.   20.2  141.  66.1 1       ""             0.    10
## # ... with 22 more rows
…
