2005 Ford F150 Exploratory Data Analysis
…
Below the names of each column, r is telling us the data type. We can already tell we will need to change some characters to dates and others to numeric.

Its a good practice to ensure all the names of your data are in the same format. Lets use the janitor package and the clean_names function. This ensures that the names are unique, consistent, have no non alpha-numeric characters, and transform spaces into underscores.

truck =
truck %>%
janitor::clean_names(case = "snake")

truck

## # A tibble: 420 x 7
##    fill_up_date total_miles tank_miles gallons   mpg finish_tank_date notes
##    <chr>              <dbl>      <dbl>   <dbl> <dbl> <chr>            <chr>
##  1 17-Feb-06         24251        366     22.6  16.2 18-Feb-06        <NA> 
##  2 18-Feb-06         24443.       192.    12.8  15.0 18-Feb-06        <NA> 
##  3 18-Feb-06         24765        322.    16.5  19.5 27-Feb-06        <NA> 
##  4 27-Feb-06         25156        391     24.9  15.7 10-Mar-06        <NA> 
##  5 10-Mar-06         25431.       275.    15.8  17.4 11-Mar-06        <NA> 
##  6 11-Mar-06         25548.       117.     7.5  15.6 11-Mar-06        <NA> 
##  7 11-Mar-06         25900.       352.    18.8  18.7 12-Mar-06        <NA> 
##  8 12-Mar-06         26283.       382.    22.1  17.3 13-Mar-06        <NA> 
##  9 13-Mar-06         26617.       334     19    17.6 14-Mar-06        <NA> 
## 10 14-Mar-06         26847.       230.    13.7  16.8 14-Mar-06        <NA> 
## # ... with 410 more rows
…
This is more informative. The skim function shows us the total number of observations and variables, missingness, descriptive statistics, and a general distribution of the data.

Filter NAs

There are a couple of NAs in the data. They happen to all be in the same row so we can handle them with the following command

truck = truck %>%
  filter(!is.na(gallons))
truck

## # A tibble: 419 x 7
##    fill_up_date total_miles tank_miles gallons   mpg finish_tank_date notes
##    <chr>              <dbl>      <dbl>   <dbl> <dbl> <chr>            <chr>
##  1 17-Feb-06         24251        366     22.6  16.2 18-Feb-06        <NA> 
##  2 18-Feb-06         24443.       192.    12.8  15.0 18-Feb-06        <NA> 
##  3 18-Feb-06         24765        322.    16.5  19.5 27-Feb-06        <NA> 
##  4 27-Feb-06         25156        391     24.9  15.7 10-Mar-06        <NA> 
##  5 10-Mar-06         25431.       275.    15.8  17.4 11-Mar-06        <NA> 
##  6 11-Mar-06         25548.       117.     7.5  15.6 11-Mar-06        <NA> 
##  7 11-Mar-06         25900.       352.    18.8  18.7 12-Mar-06        <NA> 
##  8 12-Mar-06         26283.       382.    22.1  17.3 13-Mar-06        <NA> 
##  9 13-Mar-06         26617.       334     19    17.6 14-Mar-06        <NA> 
## 10 14-Mar-06         26847.       230.    13.7  16.8 14-Mar-06        <NA> 
## # ... with 409 more rows
…
Based off what we’ve observed, we need to do the following things:

- R currently reads the dates as character vectors. We’ll need to mutate them so R reads them correctly.

- R Reads the TotalMiles column as a character so we’ll need to mutate the column to numeric as well. - The notes column designates if there was uncertainty in the data collection. I’ll mutate to change this to a numeric 1/0 indicator.

truck = truck %>%
  mutate(fill_up_date = force_tz(dmy(fill_up_date), "America/New_York")) %>%
  mutate(finish_tank_date = force_tz(dmy(finish_tank_date), "America/New_York")) %>%
  mutate(total_miles = as.numeric(total_miles)) %>%
  mutate(notes = ifelse(is.na(notes),0,1))
truck

## # A tibble: 419 x 7
##    fill_up_date total_miles tank_miles gallons   mpg finish_tank_date notes
##    <date>             <dbl>      <dbl>   <dbl> <dbl> <date>           <dbl>
##  1 2006-02-17        24251        366     22.6  16.2 2006-02-18           0
##  2 2006-02-18        24443.       192.    12.8  15.0 2006-02-18           0
##  3 2006-02-18        24765        322.    16.5  19.5 2006-02-27           0
##  4 2006-02-27        25156        391     24.9  15.7 2006-03-10           0
##  5 2006-03-10        25431.       275.    15.8  17.4 2006-03-11           0
##  6 2006-03-11        25548.       117.     7.5  15.6 2006-03-11           0
##  7 2006-03-11        25900.       352.    18.8  18.7 2006-03-12           0
##  8 2006-03-12        26283.       382.    22.1  17.3 2006-03-13           0
##  9 2006-03-13        26617.       334     19    17.6 2006-03-14           0
## 10 2006-03-14        26847.       230.    13.7  16.8 2006-03-14           0
## # ... with 409 more rows
…
Most MPG

truck %>%
  arrange(desc(mpg)) %>% 
  print(n = 20)

## # A tibble: 419 x 7
##    fill_up_date total_miles tank_miles gallons   mpg finish_tank_date notes
##    <date>             <dbl>      <dbl>   <dbl> <dbl> <date>           <dbl>
##  1 2007-07-24        39443.       485.    18.8  25.8 2007-07-24           0
##  2 2018-04-26       188965.       800.    31.5  25.4 2018-05-28           0
##  3 2016-08-10       182854.       558.    24.9  22.4 2016-10-05           0
##  4 2013-09-20       141542        492.    22.8  21.6 2013-10-07           0
##  5 2006-03-15        27825.       478.    22.8  21.0 2006-04-26           0
##  6 2012-08-09       121019.       342.    16.7  20.5 2012-08-15           0
##  7 2012-08-15       121361.       342.    16.7  20.5 2012-08-16           0
##  8 2012-08-04       120676.       298     14.6  20.5 2012-08-09           0
##  9 2012-06-08       116914.       348.    17.2  20.2 2012-06-15           0
## 10 2006-02-18        24765        322.    16.5  19.5 2006-02-27           0
## 11 2012-09-28       128298.       479.    24.7  19.4 2012-10-02           0
## 12 2007-06-11        35698.       212.    11.1  19.2 2007-06-28           0
## 13 2006-03-14        27238.       392.    20.5  19.1 2006-03-15           0
## 14 2012-05-04       114343.       336.    17.7  19.0 2012-05-07           0
## 15 2008-04-01        49952.       540.    28.5  19.0 2008-04-09           0
## 16 2007-06-11        35485.       429     22.9  18.8 2007-06-11           0
## 17 2007-07-30        41478.       473.    25.2  18.8 2007-08-04           0
## 18 2006-03-11        25900.       352.    18.8  18.7 2006-03-12           0
## 19 2015-07-20       168776.       526.    28.6  18.4 2015-07-21           0
## 20 2014-09-29       161178.       524.    28.7  18.3 2014-10-02           0
## # ... with 399 more rows

Least MPG

truck %>%
  arrange(mpg) %>% 
  print(n = 20)

## # A tibble: 419 x 7
##    fill_up_date total_miles tank_miles gallons   mpg finish_tank_date notes
##    <date>             <dbl>      <dbl>   <dbl> <dbl> <date>           <dbl>
##  1 2012-09-04       125393.       183     21.8  8.39 2012-09-05           0
##  2 2017-02-16       184043.       230     26.7  8.62 2017-03-05           0
##  3 2012-09-13       127295.       227.    26.2  8.69 2012-09-14           0
##  4 2017-01-09       183813.       248.    27.4  9.04 2017-02-16           0
##  5 2012-06-15       117119.       205.    22.6  9.07 2012-06-19           0
##  6 2012-09-13       127068.       166.    17.6  9.43 2012-09-13           0
##  7 2016-05-27       180674.       145.    15.0  9.69 2016-05-27           0
##  8 2018-01-31       187962.       310.    32    9.70 2018-02-22           0
##  9 2017-04-15       184833.       284.    28.8  9.86 2017-05-19           0
## 10 2016-10-05       183168        314.    30.5 10.3  2016-11-09           0
## 11 2018-05-28       189162.       197.    18.5 10.6  2018-06-29           0
## 12 2018-02-22       188165.       203.    19.0 10.7  2018-04-26           0
## 13 2012-11-19       131947.       159.    14.7 10.9  2012-11-20           0
## 14 2017-05-19       185182.       349.    31.6 11.0  2017-06-12           0
## 15 2012-09-05       125997.       336.    29.8 11.2  2012-09-07           0
## 16 2017-12-02       187652.       314.    27.6 11.4  2018-01-31           0
## 17 2006-03-15        27347.       108.     9.5 11.4  2006-03-15           0
## 18 2007-05-26        31747.       312.    27.3 11.4  2007-05-28           0
## 19 2012-09-07       126389.       392.    34.2 11.5  2012-09-11           0
## 20 2012-12-30       133927        241.    20.7 11.6  2013-01-04           0
## # ... with 399 more rows
…
Time Series

Since the miles per gallon data was taken on my truck over time, lets to some time series analysis. First, we need to get the data in the correct format.

What I’ll do is rearrange the data so I have a monthly total of gallons I’ve added to my truck.

To do this, I will need to extract the month and year from the dates.

tstruck = truck %>%
  mutate(month = month(fill_up_date)) %>%
  mutate(year = year(fill_up_date))
tstruck %>% select(month, year, gallons)

## # A tibble: 419 x 3
##    month  year gallons
##    <dbl> <dbl>   <dbl>
##  1     2  2006    22.6
##  2     2  2006    12.8
##  3     2  2006    16.5
##  4     2  2006    24.9
##  5     3  2006    15.8
##  6     3  2006     7.5
##  7     3  2006    18.8
##  8     3  2006    22.1
##  9     3  2006    19  
## 10     3  2006    13.7
## # ... with 409 more rows

Next I’ll group the data by month and year and summarize the gallons over each month I’ve owned the pickup.

tstruck = tstruck %>%
  group_by(month, year) %>%
  summarise(gallons = sum(gallons)) %>%
  arrange(year, month)
tstruck

## # A tibble: 131 x 3
## # Groups:   month [12]
##    month  year gallons
##    <dbl> <dbl>   <dbl>
##  1     2  2006    76.8
##  2     3  2006   150. 
##  3     4  2006    23.5
##  4     6  2006    23.5
##  5     7  2006    23.5
##  6     9  2006    23.5
##  7    10  2006    42.1
##  8    12  2006    21.9
##  9     1  2007    23.1
## 10     2  2007    20.4
## # ... with 121 more rows

What you may notice is that I didn’t fill up my pick up every month. This will cause an issue when it comes to time series analysis because I need an observation for every month. I need to add a 0 for every month that is missing. Here is how I will accomplish this task.

First, I’ll create a tibble of months from when we purchased the pick up until now. I’ll extract out the month and year just like my original data-set.

startday = mdy("2-2-2006")
endday = mdy("6-2-2018")
helper = tibble(date = startday + months(0:149)) %>%
  mutate(month = month(date)) %>%
  mutate(year = year(date))
helper

## # A tibble: 150 x 3
##    date       month  year
##    <date>     <dbl> <dbl>
##  1 2006-02-02     2  2006
##  2 2006-03-02     3  2006
##  3 2006-04-02     4  2006
##  4 2006-05-02     5  2006
##  5 2006-06-02     6  2006
##  6 2006-07-02     7  2006
##  7 2006-08-02     8  2006
##  8 2006-09-02     9  2006
##  9 2006-10-02    10  2006
## 10 2006-11-02    11  2006
## # ... with 140 more rows

Next, I’ll do a full_join of the helper tibble I created with my original data.

expanded = full_join(helper, tstruck)
expanded

## # A tibble: 150 x 4
##    date       month  year gallons
##    <date>     <dbl> <dbl>   <dbl>
##  1 2006-02-02     2  2006    76.8
##  2 2006-03-02     3  2006   150. 
##  3 2006-04-02     4  2006    23.5
##  4 2006-05-02     5  2006    NA  
##  5 2006-06-02     6  2006    23.5
##  6 2006-07-02     7  2006    23.5
##  7 2006-08-02     8  2006    NA  
##  8 2006-09-02     9  2006    23.5
##  9 2006-10-02    10  2006    42.1
## 10 2006-11-02    11  2006    NA  
## # ... with 140 more rows

Notice how this creates a line for every month, but where I was missing gallons data, I have an NA.

I will fix this by replacing the NAs with 0s.

expanded =  expanded %>%
  mutate(gallons = ifelse(is.na(gallons),0,gallons)) %>%
  select(gallons)
expanded

## # A tibble: 150 x 1
##    gallons
##      <dbl>
##  1    76.8
##  2   150. 
##  3    23.5
##  4     0  
##  5    23.5
##  6    23.5
##  7     0  
##  8    23.5
##  9    42.1
## 10     0  
## # ... with 140 more rows
…
Then lets create a tibble of dates that we can join our future predictions to.

startday = mdy("6-2-2018")
helper = tibble(date = startday + months(1:length(futurevec))) %>%
  mutate(month = month(date)) %>%
  mutate(year = year(date))
helper

## # A tibble: 156 x 3
##    date       month  year
##    <date>     <dbl> <dbl>
##  1 2018-07-02     7  2018
##  2 2018-08-02     8  2018
##  3 2018-09-02     9  2018
##  4 2018-10-02    10  2018
##  5 2018-11-02    11  2018
##  6 2018-12-02    12  2018
##  7 2019-01-02     1  2019
##  8 2019-02-02     2  2019
##  9 2019-03-02     3  2019
## 10 2019-04-02     4  2019
## # ... with 146 more rows
…
