Analysis of my Children's Reading List
…
cleanedarticle = anti_join(textcleaned,stop_words, by = "word")

nrc = get_sentiments("nrc")

tweetsentimentnrc = cleanedarticle %>%
  inner_join(nrc, by = "word")

tweetsentimentnrc = tweetsentimentnrc %>%
  mutate(sent = ifelse(sentiment=="joy"|sentiment=="positive"|sentiment=="suprise"|sentiment=="trust","Positive Words",
                       ifelse(sentiment=="disgust"|sentiment=="fear"|sentiment=="negative"|sentiment=="sadness","Negative Words","Neutral Words"))) %>%
  mutate(sent = as.factor(sent))

tweetsentimentnrc

## # A tibble: 918 x 7
##     line                  book            Genre      Author         word    sentiment           sent
##    <int>                 <chr>            <chr>       <chr>        <chr>        <chr>         <fctr>
##  1     1 And Then Comes Summer Juvenile Fiction Tom Brenner       joyful          joy Positive Words
##  2     1 And Then Comes Summer Juvenile Fiction Tom Brenner       joyful     positive Positive Words
##  3     1 And Then Comes Summer Juvenile Fiction Tom Brenner       joyful        trust Positive Words
##  4     1 And Then Comes Summer Juvenile Fiction Tom Brenner          sun anticipation  Neutral Words
##  5     1 And Then Comes Summer Juvenile Fiction Tom Brenner          sun          joy Positive Words
##  6     1 And Then Comes Summer Juvenile Fiction Tom Brenner          sun     positive Positive Words
##  7     1 And Then Comes Summer Juvenile Fiction Tom Brenner          sun     surprise  Neutral Words
##  8     1 And Then Comes Summer Juvenile Fiction Tom Brenner          sun        trust Positive Words
##  9     1 And Then Comes Summer Juvenile Fiction Tom Brenner      tribute     positive Positive Words
## 10     1 And Then Comes Summer Juvenile Fiction Tom Brenner anticipation anticipation  Neutral Words
## # ... with 908 more rows
…
