Injury Detection in Cadet Basic Training
…
## <9675/3224/12899>

Preprocesses

preprocessing_recipe <-
  recipe(injured ~ ., data = training(initial_split)) %>%
  step_rm(usma_grad_yr) %>%
  step_knnimpute(all_numeric()) %>%
  step_center(all_numeric()) %>%
  step_scale(all_numeric()) %>%
  step_lincomb(all_numeric()) %>%
  step_nzv(all_predictors()) %>%
  prep()

## # A tibble: 9,675 x 15
##    gender ethnicity    age initial_hgt initial_wt pullups_raw bbt_raw sr_raw
##    <fct>  <fct>      <dbl>       <dbl>      <dbl>       <dbl>   <dbl>  <dbl>
##  1 FEMALE WHITE (C~ -1.34      -1.24       -0.744      -1.69   -1.37   0.817
##  2 MALE   WHITE (C~  3.72       1.15        1.46       -0.492  -0.264  0.228
##  3 MALE   WHITE (C~ -0.329      1.15        0.651       1.39    0.191 -0.596
##  4 MALE   WHITE (C~ -0.329      0.250       0.394      -0.150   0.646 -0.243
##  5 MALE   WHITE (C~ -0.329     -0.346       0.247       0.362   0.126 -0.596
##  6 MALE   HISPANIC  -0.329     -0.943      -0.560      -0.321   0.451  0.228
##  7 MALE   HISPANIC  -0.329     -0.943      -0.560      -0.321   0.451  0.228
##  8 MALE   HISPANIC  -1.34      -0.644      -0.303      -0.321   0.711 -1.30 
##  9 MALE   WHITE (C~ -0.329      0.549       0.174      -0.492  -0.654 -0.243
## 10 MALE   WHITE (C~  1.69      -0.0479      1.53       -0.321   0.646 -0.361
## # ... with 9,665 more rows, and 7 more variables: crunch_raw <dbl>,
## #   pshups_raw <dbl>, cbt_initial_pushup <dbl>, cbt_initial_situp <dbl>,
## #   cbt_initial_run <dbl>, cbt_initial_swim <dbl>, injured <fct>
…
Specify Tuning Parameters

Random Forest

forest_params <- parameters(mtry(c(2,6)), trees(), min_n())

set.seed(nchar("beat_navy"))
forest_grid <- grid_max_entropy(forest_params, size = 30)
forest_grid

## # A tibble: 30 x 3
##     mtry trees min_n
##    <int> <int> <int>
##  1     3   509     5
##  2     5   824     9
##  3     4  1474    31
##  4     4   830    38
##  5     3   630    22
##  6     6  1539     5
##  7     3    10    32
##  8     5   156    21
##  9     2  1941    25
## 10     2   468    31
## # ... with 20 more rows
…
Execute Best Model and Determine Accuracy Rate

Execute Best Model on All Data

## # A tibble: 12,899 x 18
##    .pred_class usma_grad_yr gender ethnicity   age initial_hgt initial_wt
##    <fct>              <dbl> <fct>  <fct>     <dbl>       <dbl>      <dbl>
##  1 1                   2012 MALE   WHITE (C~    22          73        206
##  2 1                   2012 MALE   HISPANIC     18          66        151
##  3 1                   2012 MALE   HISPANIC     18          66        151
##  4 1                   2012 MALE   WHITE (C~    18          70        173
##  5 1                   2012 FEMALE WHITE (C~    18          65        125
##  6 1                   2012 MALE   WHITE (C~    17          73        145
##  7 1                   2012 MALE   WHITE (C~    18          69        151
##  8 1                   2012 MALE   ASIAN        17          67        146
##  9 1                   2012 FEMALE BLACK OR~    18          63        127
## 10 1                   2012 MALE   ASIAN        18          67        158
## # ... with 12,889 more rows, and 11 more variables: pullups_raw <dbl>,
## #   fah_sec <dbl>, bbt_raw <dbl>, sr_raw <dbl>, crunch_raw <dbl>,
## #   pshups_raw <dbl>, cbt_initial_pushup <dbl>, cbt_initial_situp <dbl>,
## #   cbt_initial_run <dbl>, cbt_initial_swim <dbl>, injured <fct>
…
