5 Data Modeling | Intermediate R
…
## # A tibble: 1 x 2
##   inducted     n
##   <chr>    <int>
## 1 Y          317

retiredyear <- 
data %>% 
  group_by(player_id) %>% 
  summarise(lastyear = max(year_id))

## `summarise()` ungrouping output (override with `.groups` argument)

retiredyear

## # A tibble: 18,915 x 2
##    player_id lastyear
##    <chr>        <dbl>
##  1 aardsda01     2015
##  2 aaronha01     1976
##  3 aaronto01     1971
##  4 aasedo01      1990
##  5 abadan01      2006
##  6 abadfe01      2016
##  7 abadijo01     1875
##  8 abbated01     1910
##  9 abbeybe01     1896
## 10 abbeych01     1897
## # ... with 18,905 more rows
…
## Joining, by = "player_id"

## Joining, by = "player_id"

hof

## # A tibble: 1,565 x 20
##    player_id     g    ab     r     h   x2b   x3b    hr   rbi    sb    cs    bb    so   ibb   hbp    sh    sf  gidp lastyear inducted
##    <chr>     <dbl> <dbl> <dbl> <dbl> <dbl> <dbl> <dbl> <dbl> <dbl> <dbl> <dbl> <dbl> <dbl> <dbl> <dbl> <dbl> <dbl>    <dbl> <fct>   
##  1 aaronha01  3298 12364  2174  3771   624    98   755  2297   240    73  1402  1383   293    32    21   121   328     1976 1       
##  2 abreubo01  2425  8480  1453  2470   574    59   288  1363   400   128  1476  1840   115    33     7    85   165     2014 0       
##  3 adairje01  1165  4019   378  1022   163    19    57   366    29    29   208   499    31    17    41    30   149     1970 0       
##  4 adamsbo03  1281  4019   591  1082   188    49    37   303    67    30   414   447     1    17    78     5    62     1959 0       
##  5 adamssp01  1424  5557   844  1588   249    48     9   394   154    50   453   223     0    28   136     0    14     1934 0       
##  6 adcocjo01  1959  6606   823  1832   295    35   336  1122    20    25   594  1059    55    17    52    35   223     1966 0       
##  7 ageeto01   1129  3912   558   999   170    27   130   433   167    81   342   918    26    34    21    15    99     1973 0       
##  8 ainsmed01  1078  3048   299   707   108    54    22   317    86    16   263   315     0    12    99     0     0     1924 0       
##  9 alfoned01  1506  5385   777  1532   282    18   146   744    53    17   596   617    22    41    31    55   110     2006 0       
## 10 alicelu01  1341  3971   551  1031   189    53    47   422    81    50   500   624    25    48    49    45    74     2002 0       
## # ... with 1,555 more rows
…
## # A tibble: 2 x 2
##   inducted     n
##   <fct>    <int>
## 1 0         1229
## 2 1          168

hofmod <-
hof %>% 
  filter(lastyear <= 2012) %>% 
  select(-lastyear)
hofmod

## # A tibble: 1,397 x 19
##    player_id     g    ab     r     h   x2b   x3b    hr   rbi    sb    cs    bb    so   ibb   hbp    sh    sf  gidp inducted
##    <chr>     <dbl> <dbl> <dbl> <dbl> <dbl> <dbl> <dbl> <dbl> <dbl> <dbl> <dbl> <dbl> <dbl> <dbl> <dbl> <dbl> <dbl> <fct>   
##  1 aaronha01  3298 12364  2174  3771   624    98   755  2297   240    73  1402  1383   293    32    21   121   328 1       
##  2 adairje01  1165  4019   378  1022   163    19    57   366    29    29   208   499    31    17    41    30   149 0       
##  3 adamsbo03  1281  4019   591  1082   188    49    37   303    67    30   414   447     1    17    78     5    62 0       
##  4 adamssp01  1424  5557   844  1588   249    48     9   394   154    50   453   223     0    28   136     0    14 0       
##  5 adcocjo01  1959  6606   823  1832   295    35   336  1122    20    25   594  1059    55    17    52    35   223 0       
##  6 ageeto01   1129  3912   558   999   170    27   130   433   167    81   342   918    26    34    21    15    99 0       
##  7 ainsmed01  1078  3048   299   707   108    54    22   317    86    16   263   315     0    12    99     0     0 0       
##  8 alfoned01  1506  5385   777  1532   282    18   146   744    53    17   596   617    22    41    31    55   110 0       
##  9 alicelu01  1341  3971   551  1031   189    53    47   422    81    50   500   624    25    48    49    45    74 0       
## 10 allenbe01  1139  3404   357   815   140    21    73   351    13    16   370   424    52     8    24    17    60 0       
## # ... with 1,387 more rows

hoftest <-
hof %>% 
  filter(lastyear > 2012) %>% 
  select(-lastyear,-inducted)
hoftest

## # A tibble: 168 x 18
##    player_id     g    ab     r     h   x2b   x3b    hr   rbi    sb    cs    bb    so   ibb   hbp    sh    sf  gidp
##    <chr>     <dbl> <dbl> <dbl> <dbl> <dbl> <dbl> <dbl> <dbl> <dbl> <dbl> <dbl> <dbl> <dbl> <dbl> <dbl> <dbl> <dbl>
##  1 abreubo01  2425  8480  1453  2470   574    59   288  1363   400   128  1476  1840   115    33     7    85   165
##  2 andruel01  1221  4625   648  1266   207    37    35   436   241    83   408   684     4    34    99    36   114
##  3 aybarer01  1346  4842   606  1324   241    45    51   451   144    58   257   613    16    48    72    37   102
##  4 barmecl01  1186  3805   434   932   208    17    89   415    43    30   216   734    32    60    60    26    54
##  5 bautijo02  1519  5139   878  1311   267    17   308   862    60    26   881  1113    53    66    23    50   152
##  6 bayja01    1278  4505   737  1200   240    30   222   754    95    17   636  1216    38    56     7    54    84
##  7 beltrad01  2720 10295  1428  2942   591    36   445  1571   119    42   775  1584   108    87    14    89   259
##  8 beltrca01  2457  9301  1522  2617   536    78   421  1536   312    49  1051  1693   101    48    18   104   194
##  9 berkmla01  1879  6491  1146  1905   422    30   366  1234    86    48  1201  1300   160    66     1    54   147
## 10 betanyu01  1156  4052   437  1057   218    29    80   457    30    30   143   435    10    10    34    39   110
## # ... with 158 more rows
…
5.5 Apply Preprocessing

For a recipe with at least one preprocessing operations that has been trained by recipe(), apply the computations to the data.

hof_training_preprocessed_tbl <- 
  preprocessing_recipe %>% 
  bake(training(hof_initial_split))

hof_training_preprocessed_tbl

## # A tibble: 1,118 x 18
##         g      ab       r       h     x2b      x3b      hr    rbi     sb     cs     bb       so     ibb     hbp     sh      sf   gidp inducted
##     <dbl>   <dbl>   <dbl>   <dbl>   <dbl>    <dbl>   <dbl>  <dbl>  <dbl>  <dbl>  <dbl>    <dbl>   <dbl>   <dbl>  <dbl>   <dbl>  <dbl> <fct>   
##  1  3.88   3.67    3.86    3.80    3.24    1.09     5.38    4.45   0.776  0.819  2.80   1.92     5.50   -0.187  -0.682  3.20    3.43  1       
##  2 -0.870 -0.700  -1.07   -0.769  -0.794  -0.862   -0.551  -0.923 -0.696 -0.314 -1.10  -0.300   -0.0505 -0.624  -0.384  0.0560  0.892 0       
##  3 -0.611 -0.700  -0.488  -0.669  -0.576  -0.121   -0.721  -1.10  -0.431 -0.288 -0.425 -0.431   -0.686  -0.624   0.169 -0.809  -0.342 0       
##  4 -0.293  0.105   0.208   0.172  -0.0415 -0.146   -0.959  -0.845  0.176  0.226 -0.298 -0.994   -0.708  -0.304   1.03  -0.982  -1.02  0       
##  5  0.899  0.655   0.150   0.578   0.361  -0.467    1.82    1.18  -0.759 -0.417  0.163  1.11     0.458  -0.624  -0.219  0.229   1.94  0       
##  6 -0.950 -0.756  -0.579  -0.807  -0.733  -0.665    0.0686 -0.737  0.266  1.02  -0.660  0.754   -0.157  -0.129  -0.682 -0.463   0.183 0       
##  7 -1.06  -1.21   -1.29   -1.29   -1.28    0.00236 -0.849  -1.06  -0.298 -0.649 -0.918 -0.763   -0.708  -0.769   0.482 -0.982  -1.22  0       
##  8 -0.110  0.0153  0.0234  0.0790  0.247  -0.887    0.205   0.128 -0.529 -0.623  0.169 -0.00326 -0.241   0.0746 -0.533  0.921   0.339 0       
##  9 -0.478 -0.725  -0.598  -0.754  -0.567  -0.0223  -0.636  -0.767 -0.333  0.226 -0.144  0.0144  -0.178   0.278  -0.264  0.575  -0.172 0       
## 10 -0.928 -1.02   -1.13   -1.11   -0.996  -0.813   -0.416  -0.965 -0.808 -0.649 -0.569 -0.489    0.395  -0.886  -0.638 -0.394  -0.371 0       
## # ... with 1,108 more rows
…
forest_params <- parameters(mtry(c(2,6)), trees(), min_n())
forest_params

## Collection of 3 parameters for tuning
## 
##     id parameter type object class
##   mtry           mtry    nparam[+]
##  trees          trees    nparam[+]
##  min_n          min_n    nparam[+]

set.seed(str_length("beatnavy"))
forest_grid <- grid_max_entropy(forest_params, size = 30)
forest_grid

## # A tibble: 30 x 3
##     mtry trees min_n
##    <int> <int> <int>
##  1     3  1714     5
##  2     4   368    28
##  3     3  1607    39
##  4     3  1207    14
##  5     5    42    37
##  6     4   892    27
##  7     3  1154    25
##  8     5  1678     2
##  9     4   607    10
## 10     3   803    37
## # ... with 20 more rows
…
