5 Text Analysis | Intermediate R
…
book =
book %>% separate_rows(value, sep = "\nCHAPTER") %>%
  slice(-1) %>%
  mutate(value = str_remove_all(string = value, pattern = "\n")) %>%
  mutate(value = str_replace(value, "jpg", "HERE")) %>%
  separate(col = "value", into = c("Chapter", "Text"), sep = "HERE") %>%
  filter(!is.na(Text)) %>% 
  mutate(Chapter = unlist(str_extract_all(Chapter, "[A-Z]+"))) %>%
  mutate(Text = str_replace_all(Text, "[.]"," ")) %>% 
  mutate(Chapter = as.numeric(as.roman(Chapter)))

book

## # A tibble: 35 x 3
##     Book Chapter Text                                                                                   
##    <int>   <dbl> <chr>                                                                                  
##  1     1       1 " (182K)\r\r\r\r\r\r“TOM!”\r\rNo answer \r\r“TOM!”\r\rNo answer \r\r“What’s gone with ~
##  2     1       2 " (202K)\r\r\r\r\r\rSATURDAY morning was come, and all the summer world was bright and~
##  3     1       3 " (197K)\r\r\r\r\r\rTOM presented himself before Aunt Polly, who was sitting by an ope~
##  4     1       4 " (218K)\r\r\r\r\r\rTHE sun rose upon a tranquil world, and beamed down upon the peace~
##  5     1       5 " (205K)\r\r\r\r\r\rABOUT half-past ten the cracked bell of the small church began to ~
##  6     1       6 " (202K)\r\r\r\r\r\rMONDAY morning found Tom Sawyer miserable  Monday morning always f~
##  7     1       7 " (175K)\r\r\r\r\r\rTHE harder Tom tried to fasten his mind on his book, the more his ~
##  8     1       8 " (195K)\r\r\r\r\r\rTOM dodged hither and thither through lanes until he was well out ~
##  9     1       9 " (174K)\r\r\r\r\r\rAT half-past nine, that night, Tom and Sid were sent to bed, as us~
## 10     1      10 " (171K)\r\r\r\r\r\rTHE two boys flew on and on, toward the village, speechless with h~
## # ... with 25 more rows

5.3 Tokenize the Book

booktokens = book   %>%
  unnest_tokens(word, Text)
booktokens

## # A tibble: 70,882 x 3
##     Book Chapter word  
##    <int>   <dbl> <chr> 
##  1     1       1 182k  
##  2     1       1 tom   
##  3     1       1 no    
##  4     1       1 answer
##  5     1       1 tom   
##  6     1       1 no    
##  7     1       1 answer
##  8     1       1 what’s
##  9     1       1 gone  
## 10     1       1 with  
## # ... with 70,872 more rows

5.4 Remove ‘stop words’

bookstop = booktokens %>%
  anti_join(stop_words)
bookstop

## # A tibble: 26,251 x 3
##     Book Chapter word  
##    <int>   <dbl> <chr> 
##  1     1       1 182k  
##  2     1       1 tom   
##  3     1       1 answer
##  4     1       1 tom   
##  5     1       1 answer
##  6     1       1 what’s
##  7     1       1 boy   
##  8     1       1 tom   
##  9     1       1 answer
## 10     1       1 lady  
## # ... with 26,241 more rows

5.5 Join Sentiments

get_sentiments(lexicon = "afinn")

## # A tibble: 2,477 x 2
##    word       value
##    <chr>      <dbl>
##  1 abandon       -2
##  2 abandoned     -2
##  3 abandons      -2
##  4 abducted      -2
##  5 abduction     -2
##  6 abductions    -2
##  7 abhor         -3
##  8 abhorred      -3
##  9 abhorrent     -3
## 10 abhors        -3
## # ... with 2,467 more rows

get_sentiments(lexicon = "bing")

## # A tibble: 6,786 x 2
##    word        sentiment
##    <chr>       <chr>    
##  1 2-faces     negative 
##  2 abnormal    negative 
##  3 abolish     negative 
##  4 abominable  negative 
##  5 abominably  negative 
##  6 abominate   negative 
##  7 abomination negative 
##  8 abort       negative 
##  9 aborted     negative 
## 10 aborts      negative 
## # ... with 6,776 more rows

get_sentiments(lexicon = "loughran")

## # A tibble: 4,150 x 2
##    word         sentiment
##    <chr>        <chr>    
##  1 abandon      negative 
##  2 abandoned    negative 
##  3 abandoning   negative 
##  4 abandonment  negative 
##  5 abandonments negative 
##  6 abandons     negative 
##  7 abdicated    negative 
##  8 abdicates    negative 
##  9 abdicating   negative 
## 10 abdication   negative 
## # ... with 4,140 more rows

get_sentiments(lexicon = "nrc")

## # A tibble: 13,901 x 2
##    word        sentiment
##    <chr>       <chr>    
##  1 abacus      trust    
##  2 abandon     fear     
##  3 abandon     negative 
##  4 abandon     sadness  
##  5 abandoned   anger    
##  6 abandoned   fear     
##  7 abandoned   negative 
##  8 abandoned   sadness  
##  9 abandonment anger    
## 10 abandonment fear     
## # ... with 13,891 more rows

booktokens %>%
  left_join(get_sentiments("bing"))

## # A tibble: 70,882 x 4
##     Book Chapter word   sentiment
##    <int>   <dbl> <chr>  <chr>    
##  1     1       1 182k   <NA>     
##  2     1       1 tom    <NA>     
##  3     1       1 no     <NA>     
##  4     1       1 answer <NA>     
##  5     1       1 tom    <NA>     
##  6     1       1 no     <NA>     
##  7     1       1 answer <NA>     
##  8     1       1 what’s <NA>     
##  9     1       1 gone   <NA>     
## 10     1       1 with   <NA>     
## # ... with 70,872 more rows

booktokens %>%
  left_join(get_sentiments("bing")) %>%
  filter(!is.na(sentiment))

## # A tibble: 4,778 x 4
##     Book Chapter word      sentiment
##    <int>   <dbl> <chr>     <chr>    
##  1     1       1 wonder    positive 
##  2     1       1 pride     positive 
##  3     1       1 well      positive 
##  4     1       1 perplexed negative 
##  5     1       1 loud      negative 
##  6     1       1 enough    positive 
##  7     1       1 well      positive 
##  8     1       1 noise     negative 
##  9     1       1 slack     negative 
## 10     1       1 well      positive 
## # ... with 4,768 more rows

5.6 Descriptive Text Statistics

booktokens %>%
  left_join(get_sentiments("bing")) %>%
  filter(!is.na(sentiment)) %>%
  count(Chapter,sentiment)

## # A tibble: 64 x 3
##    Chapter sentiment     n
##      <dbl> <chr>     <int>
##  1       1 negative     95
##  2       1 positive     81
##  3       2 negative     40
##  4       2 positive     66
##  5       3 negative     96
##  6       3 positive     84
##  7       4 negative     96
##  8       4 positive    147
##  9       5 negative     63
## 10       5 positive     60
## # ... with 54 more rows
…
5.8 N-Gram Analysis

5.8.1 Uni-Grams

booktokens %>%
  count(word, sort = TRUE)

## # A tibble: 7,774 x 2
##    word      n
##    <chr> <int>
##  1 the    3708
##  2 and    3059
##  3 a      1807
##  4 to     1696
##  5 of     1474
##  6 he     1158
##  7 was    1126
##  8 it     1090
##  9 in      943
## 10 that    875
## # ... with 7,764 more rows

5.8.2 Remove Stop Words

booktokens %>%
  left_join(get_sentiments("bing")) %>%
  filter(!is.na(sentiment)) %>%
  count(word,sentiment, sort = TRUE)

## # A tibble: 1,358 x 3
##    word   sentiment     n
##    <chr>  <chr>     <int>
##  1 well   positive    152
##  2 like   positive    113
##  3 good   positive    101
##  4 work   positive     88
##  5 right  positive     83
##  6 great  positive     68
##  7 dead   negative     59
##  8 enough positive     57
##  9 poor   negative     52
## 10 cave   negative     41
## # ... with 1,348 more rows
…
5.8.4 Bigrams

bookbitokens = book   %>%
  unnest_tokens(bigram, Text, token = "ngrams", n = 2, n_min = 2)
bookbitokens

## # A tibble: 70,848 x 3
##     Book Chapter bigram       
##    <int>   <dbl> <chr>        
##  1     1       1 182k tom     
##  2     1       1 tom no       
##  3     1       1 no answer    
##  4     1       1 answer tom   
##  5     1       1 tom no       
##  6     1       1 no answer    
##  7     1       1 answer what’s
##  8     1       1 what’s gone  
##  9     1       1 gone with    
## 10     1       1 with that    
## # ... with 70,838 more rows

bookbitokens %>%
  count(bigram, sort = TRUE)

## # A tibble: 41,080 x 2
##    bigram        n
##    <chr>     <int>
##  1 of the      364
##  2 in the      298
##  3 and the     184
##  4 it was      175
##  5 to the      175
##  6 he was      147
##  7 and then    126
##  8 was a       116
##  9 he had      110
## 10 there was   110
## # ... with 41,070 more rows

5.8.5 Remove Stop Words in Bigrams

bookbitokens %>%
  separate(bigram, c("word1", "word2"), sep = " ")

## # A tibble: 70,848 x 4
##     Book Chapter word1  word2 
##    <int>   <dbl> <chr>  <chr> 
##  1     1       1 182k   tom   
##  2     1       1 tom    no    
##  3     1       1 no     answer
##  4     1       1 answer tom   
##  5     1       1 tom    no    
##  6     1       1 no     answer
##  7     1       1 answer what’s
##  8     1       1 what’s gone  
##  9     1       1 gone   with  
## 10     1       1 with   that  
## # ... with 70,838 more rows

bigrams = 
bookbitokens %>%
  separate(bigram, c("word1", "word2"), sep = " ") %>%
  filter(!word1 %in% stop_words$word) %>%
  filter(!word2 %in% stop_words$word)

bigrams %>% 
  count(word1, word2, sort = TRUE)

## # A tibble: 6,910 x 3
##    word1     word2          n
##    <chr>     <chr>      <int>
##  1 project   gutenberg     84
##  2 gutenberg tm            56
##  3 injun     joe           45
##  4 aunt      polly         42
##  5 tom       sawyer        23
##  6 injun     joe’s         18
##  7 tm        electronic    18
##  8 muff      potter        15
##  9 archive   foundation    13
## 10 gutenberg literary      13
## # ... with 6,900 more rows
…
Inverse Document Frequency: \(\ln(\frac{Total Number of Documents}{Total Number of Documents Containing Specified Word})\): Measure of how much information the word provides.

Term Frequency - Inverse Document Frequency: Term Frequency * Inverse Document Frequency

5.9.1 Build TF-IDF Data

Words By Chapter

booktokens %>%
  count(Chapter, word, sort = TRUE, name = "count") %>%
  add_count(word) %>%
  spread(Chapter, count) %>%
  arrange(desc(n))

## # A tibble: 7,774 x 36
##    word      n   `1`   `2`   `3`   `4`   `5`   `6`   `7`   `8`   `9`  `10`  `11`  `12`  `13`  `14`  `15`
##    <chr> <int> <int> <int> <int> <int> <int> <int> <int> <int> <int> <int> <int> <int> <int> <int> <int>
##  1 a        32    66    75    62   132    58    94    34    53    54    52    29    42    81    78    36
##  2 all      32     4     8     9    20     7    12    12     6    11     2     3     9     9     6     4
##  3 and      32   102    77   110   166   101   139    96    88    99    87    66    77   113   107    86
##  4 as       32    16     4    12    18    22    14    10     7    12    10    11     9     9    20     5
##  5 be       32     4     5     4    15     7     3     6    11     9     4     5     8    16     7     8
##  6 befo~    32     3     3     4     2     2     3     4     3     2     3     6     2     2     4     5
##  7 but      32    19    16    18    22    14    33    22    11    11    18    10    13    28    11    13
##  8 for      32    26    11    18    46    27    15     9     6    14    10    12    16    15    12    17
##  9 got      32     6     6     6     7     1    10     4     2     5     7     2     1     4     3     2
## 10 had      32    13    13    22    27    15    13     8    17     9     8    17    12    21    10    11
## # ... with 7,764 more rows, and 19 more variables: `16` <int>, `17` <int>, `18` <int>, `19` <int>,
## #   `20` <int>, `21` <int>, `22` <int>, `23` <int>, `24` <int>, `25` <int>, `27` <int>, `28` <int>,
## #   `29` <int>, `30` <int>, `31` <int>, `32` <int>, `33` <int>, `34` <int>, `35` <int>

Word Frequency Per Chapter and Book

booktokens %>%
  count(Chapter, word, sort = TRUE, name = "Chapter_Total") %>%
  left_join(
    booktokens %>%
      count(word, sort = TRUE, name = "Book_Total")
    )

## # A tibble: 24,205 x 4
##    Chapter word  Chapter_Total Book_Total
##      <dbl> <chr>         <int>      <int>
##  1      16 the             275       3708
##  2      16 and             269       3059
##  3      35 the             245       3708
##  4      33 the             205       3708
##  5      30 the             187       3708
##  6       4 the             185       3708
##  7       5 the             167       3708
##  8       4 and             166       3059
##  9      29 the             166       3708
## 10      21 the             162       3708
## # ... with 24,195 more rows
…
## A LDA_VEM topic model with 2 topics.

Extract Topics and ‘Beta’ of each topic.

Beta represents topic-word density.

Beta: In each topic, how dense is this word?

Higher is more dense. Lower is less dense

topics <- tidy(lda, matrix = "beta")
topics

## # A tibble: 3,526 x 3
##    topic term            beta
##    <int> <chr>          <dbl>
##  1     1 advantage   3.10e- 4
##  2     2 advantage   9.02e-79
##  3     1 adventurous 1.03e- 4
##  4     2 adventurous 7.65e-79
##  5     1 afraid      1.95e- 3
##  6     2 afraid      2.91e- 3
##  7     1 arrest      1.03e- 4
##  8     2 arrest      3.63e-79
##  9     1 astronomer  4.14e- 4
## 10     2 astronomer  4.49e-78
## # ... with 3,516 more rows

topics %>% arrange(-beta)

## # A tibble: 3,526 x 3
##    topic term    beta
##    <int> <chr>  <dbl>
##  1     1 good  0.0333
##  2     2 good  0.0279
##  3     2 found 0.0209
##  4     2 hope  0.0181
##  5     1 boy   0.0176
##  6     2 awful 0.0162
##  7     1 money 0.0152
##  8     1 found 0.0119
##  9     1 aunt  0.0116
## 10     2 boy   0.0106
## # ... with 3,516 more rows
…
“Gamma”: From the documentation:

Each of these values is an estimated proportion of words from that document that are generated from that topic.

For example, the model estimates that about 41.7% of the words in document 6 were generated from topic 1. 58.3% of the words in document 6 were generated by topic 2.

documents <- tidy(lda, matrix = "gamma")
documents %>% arrange(as.numeric(document)) 

## # A tibble: 64 x 3
##    document topic     gamma
##    <chr>    <int>     <dbl>
##  1 1            1 1.00     
##  2 1            2 0.0000677
##  3 2            1 1.00     
##  4 2            2 0.000114 
##  5 3            1 1.00     
##  6 3            2 0.0000601
##  7 4            1 1.00     
##  8 4            2 0.0000469
##  9 5            1 1.00     
## 10 5            2 0.0000702
## # ... with 54 more rows
…
