ESPN Fantasy Football 2020 Part 1: Accessing the API
…
To extract the players for each team, we first need to know how many players are on each team each week. One might think this is consistent, but with an IR slot, this may change from week to week.

First we create a function to determine how many roster spots are on a given team.

get_roster_slots <- function(team_number=1){
  return(tibble(team_number = team_number, player_slot = 1:length(ESPNFromJSON$teams$roster$entries[[team_number]]$playerPoolEntry$player$stats)))
}

Then we map that over all teams.

team_player_slots <- purrr::map_dfr(1:number_of_teams,~get_roster_slots(team_number = .x))

team_player_slots

## # A tibble: 182 x 2
##    team_number player_slot
##          <int>       <int>
##  1           1           1
##  2           1           2
##  3           1           3
##  4           1           4
##  5           1           5
##  6           1           6
##  7           1           7
##  8           1           8
##  9           1           9
## 10           1          10
## # ... with 172 more rows
…
