…
    this.content$leaguesettings$teams$`14`$scheduleItems$matchups,

    this.content$leaguesettings$teams$`15`$scheduleItems$matchups,

    this.content$leaguesettings$teams$`16`$scheduleItems$matchups

  )

)

Lets look at the data. It contains every game and result thoughtout the season. This includes games that have not been played yet so we’ll have to account for that later.

as.tibble(fantasy)

## # A tibble: 208 x 5
##                      Away                   Home awayscore homescore  week
##                     <chr>                  <chr>     <dbl>     <dbl> <int>
##  1 'R'm Chair Quarterback        Epsilon Ballers    124.68     64.32     1
##  2        5 Guns N' Rosas 'R'm Chair Quarterback    150.78    109.08     2
##  3      2-2-2 Mega-H-Ertz 'R'm Chair Quarterback    138.18     99.52     3
##  4 'R'm Chair Quarterback      Las Vegas Radians     85.58    104.96     4
##  5       3 Baye's Theorem 'R'm Chair Quarterback     83.46    121.22     5
##  6 'R'm Chair Quarterback           Baby got Dak    100.58     73.44     6
##  7 'R'm Chair Quarterback       a^2+b^2= c^hawks    130.06     78.30     7
##  8 'R'm Chair Quarterback           Team LaPorte     83.82     89.58     8
##  9       Berry Berry Good 'R'm Chair Quarterback     98.00     93.44     9
## 10 'R'm Chair Quarterback     The Big Gronkowski     97.24    123.72    10
## # ... with 198 more rows
…
  group_by(week) %>%

  summarise(Plunger = min(Score))

fantasy = 

  fantasy %>%

  left_join(plung) %>%

  mutate(Plunger = ifelse(Plunger==Score,1,0))

as.tibble(fantasy)

## # A tibble: 832 x 5
##                      Team  Score   Who  week Plunger
##                     <chr>  <dbl> <chr> <int>   <dbl>
##  1 'R'm Chair Quarterback 124.68   For     1       0
##  2        5 Guns N' Rosas 150.78   For     2       0
##  3      2-2-2 Mega-H-Ertz 138.18   For     3       0
##  4 'R'm Chair Quarterback  85.58   For     4       0
##  5       3 Baye's Theorem  83.46   For     5       0
##  6 'R'm Chair Quarterback 100.58   For     6       0
##  7 'R'm Chair Quarterback 130.06   For     7       0
##  8 'R'm Chair Quarterback  83.82   For     8       0
##  9       Berry Berry Good  98.00   For     9       0
## 10 'R'm Chair Quarterback  97.24   For    10       0
## # ... with 822 more rows
…
