…
Explore API

Currently, the pelotonR package has a nice function for exploring your information. As with most APIs the data is stored in JSON format The function below extracts the data and unpacks some of the nested lists.

Here it is below:

my_workout_df <- pelotonR::get_all_workouts(userid = me$id, num_workouts = me$total_workouts, joins = "ride,ride.instructor")
my_workout_df 

## # A tibble: 359 x 82
##    created_at          device_type end_time            fitbit_id fitness_discipl~ has_pedaling_me~
##    <dttm>              <chr>       <dttm>              <chr>     <chr>            <lgl>           
##  1 2021-02-11 21:40:15 home_bike_~ 2021-02-11 21:45:13 64096309  stretching       FALSE           
##  2 2021-02-11 21:16:59 home_bike_~ 2021-02-11 21:37:56 65742856  cycling          TRUE            
##  3 2021-02-11 21:08:52 home_bike_~ 2021-02-11 21:13:49 65263874  cycling          TRUE            
##  4 2021-02-10 20:58:06 home_bike_~ 2021-02-10 21:03:05 65702889  stretching       FALSE           
##  5 2021-02-10 20:21:06 home_bike_~ 2021-02-10 20:52:04 65702056  cycling          TRUE            
##  6 2021-02-10 20:11:18 home_bike_~ 2021-02-10 20:16:16 64590752  cycling          TRUE            
##  7 2021-02-09 21:06:55 home_bike_~ 2021-02-09 21:11:55 65658699  cycling          TRUE            
##  8 2021-02-09 20:32:50 home_bike_~ 2021-02-09 21:03:48 65660579  cycling          TRUE            
##  9 2021-02-09 20:23:35 home_bike_~ 2021-02-09 20:28:34 65263874  cycling          TRUE            
## 10 2021-02-06 16:51:13 home_bike_~ 2021-02-06 17:37:12 65529368  cycling          TRUE            
## # ... with 349 more rows, and 76 more variables: has_leaderboard_metrics <lgl>, id <chr>,
## #   is_total_work_personal_record <lgl>, metrics_type <chr>, name <chr>, peloton_id <chr>,
## #   platform <chr>, start_time <dttm>, strava_id <chr>, status <chr>, timezone <chr>, title <chr>,
## #   total_work <dbl>, user_id <chr>, workout_type <chr>, total_video_watch_time_seconds <int>,
## #   total_video_buffering_seconds <int>, v2_total_video_watch_time_seconds <chr>,
## #   v2_total_video_buffering_seconds <chr>, total_music_audio_play_seconds <chr>,
## #   total_music_audio_buffer_seconds <chr>, ride <list>, created <dttm>,
## #   device_time_created_at <dttm>, effort_zones <chr>, ride_has_closed_captions <lgl>,
## #   ride_content_provider <chr>, ride_content_format <chr>, ride_description <chr>,
…
Dig in deeper into the API

The Peloton API has a lot more information that you cannot yet access in the library. As I get more familiar with the API / library, I may do a few more pull requests. In the meantime, lets see what else we can find.

What we see in the my_workout dataframe above list element that contains the instructor ID.

my_workout_df %>%
  select(ride_instructor) %>% 
  group_by(ride_instructor) %>%
  group_split() %>% 
  purrr::map(~unnest(.x)) %>% 
  purrr::map(~slice(.x, 1)) %>% 
  purrr::map_dfr(~unnest(.x))

## # A tibble: 33 x 1
##    ride_instructor                 
##    <chr>                           
##  1 4904612965164231a37143805a387e40
##  2 3ff679ebbd324c83a8ab6cfa6bb4be37
##  3 1b79e462bd564b6ca5ec728f1a5c2af0
##  4 c0a9505d8135412d824cf3c97406179b
##  5 c406f36aa2a44a5baf8831f8b92f6920
##  6 048f0ce00edb4427b2dced6cbeb107fd
##  7 1e59e949a19341539214a4a13ea7ff01
##  8 b8c2734e18a7496fa146b3a42465da67
##  9 561f95c405734d8488ed8dcc8980d599
## 10 2e57092bee334c8c8dcb9fe16ba5308c
## # ... with 23 more rows
…
Photo Credit: Peloton Website

Lets get a look at how we can access the data of all the Peloton instructors.

instructor_df <-
1:parse_list_to_df(parsed)$total %>%
  purrr::map_dfr(~ instructor_function(num = .x))
instructor_df

## # A tibble: 36 x 4
##    instructor_name ride_instructor_id    ride_instructor_bio                      ride_instructor_b~
##    <chr>           <chr>                 <chr>                                    <list>            
##  1 Aditi Shah      b8c2734e18a7496fa146~ "To Aditi, yoga goes beyond movement an~ <list [2]>        
##  2 Adrian Williams f962a2b1b34d424cabab~ "Adrian is a powerhouse instructor with~ <list [6]>        
##  3 Anna Greenberg  a8c56f162c964e939256~ "When Anna first turned to yoga, she fe~ <list [2]>        
##  4 Alex Toussaint  2e57092bee334c8c8dcb~ "Alex Toussaint has a love for fitness,~ <list [1]>        
##  5 Ally Love       731d7b7f6b414a49892c~ "As a model, dancer, certified health c~ <list [1]>        
##  6 Andy Speer      c9fa21c2004c4544a7c3~ "Andy takes a technique-centered approa~ <list [2]>        
##  7 Becs Gentry     286fc17080d34406a54b~ "Becs joins Peloton from London as an a~ <list [2]>        
##  8 Ben Alldis      7f3de5e78bb44d8591a0~ "Growing up, Ben was an accomplished at~ <list [2]>        
##  9 Chase Tucker    1423df9e4ad64a84a304~ "Growing up in a household of athletes ~ <list [2]>        
## 10 Cliff Dwenger   e2e6586d898d4422b3f6~ "Growing up in Hamburg, Cliff’s first l~ <list [1]>        
## # ... with 26 more rows
…
