ESPN Fantasy Football V3 API: An 'R'ish Solution
…
    ## schedule below    
py$d$schedule %>% map_df(magrittr::extract, c("winner","matchupPeriodId")) %>% 
  bind_cols(py$d$schedule %>% map("away") %>% map_df(magrittr::extract,c("teamId","totalPoints"))) %>%
  bind_cols(py$d$schedule %>% map("home") %>% map_df(magrittr::extract,c("teamId","totalPoints")))

## # A tibble: 65 x 6
##    winner    matchupPeriodId teamId totalPoints teamId1 totalPoints1
##    <chr>               <int>  <int>       <dbl>   <int>        <dbl>
##  1 UNDECIDED               1      2           0       9            0
##  2 UNDECIDED               1      3           0       7            0
##  3 UNDECIDED               1      6           0       4            0
##  4 UNDECIDED               1      1           0       5            0
##  5 UNDECIDED               1     10           0       8            0
##  6 UNDECIDED               2      6           0       3            0
##  7 UNDECIDED               2      9           0       1            0
##  8 UNDECIDED               2      2           0      10            0
##  9 UNDECIDED               2      7           0       5            0
## 10 UNDECIDED               2      4           0       8            0
## # ... with 55 more rows
…
